{
    "id": "data_server",
    "type": "application",
    "value": {
        "description": "Data server for Ambyint sensor data",
        "author": "Alex Hendren",
        "version": "1.0.0",
        "language": "c4cpp",
        "dependencies": [
            "oasys/core/common",
            "corto/fmt/json"
        ],
        "lib" : [
            "pthread"
        ]
    }
}
